module cdn

go 1.23

toolchain go1.23.5

require (
	github.com/a-h/templ v0.3.833
	github.com/charmbracelet/lipgloss v1.0.0
	github.com/charmbracelet/log v0.4.0
	github.com/labstack/echo/v4 v4.13.3
	github.com/tdewolff/minify/v2 v2.21.3
)

require (
	github.com/aymanbagabas/go-osc52/v2 v2.0.1 // indirect
	github.com/charmbracelet/x/ansi v0.6.0 // indirect
	github.com/go-logfmt/logfmt v0.6.0 // indirect
	github.com/labstack/gommon v0.4.2 // indirect
	github.com/lucasb-eyer/go-colorful v1.2.0 // indirect
	github.com/mattn/go-colorable v0.1.13 // indirect
	github.com/mattn/go-isatty v0.0.20 // indirect
	github.com/mattn/go-runewidth v0.0.16 // indirect
	github.com/muesli/termenv v0.15.2 // indirect
	github.com/rivo/uniseg v0.4.7 // indirect
	github.com/tdewolff/parse/v2 v2.7.19 // indirect
	github.com/valyala/bytebufferpool v1.0.0 // indirect
	github.com/valyala/fasttemplate v1.2.2 // indirect
	golang.org/x/crypto v0.31.0 // indirect
	golang.org/x/exp v0.0.0-20241217172543-b2144cdd0a67 // indirect
	golang.org/x/net v0.33.0 // indirect
	golang.org/x/sys v0.28.0 // indirect
	golang.org/x/text v0.21.0 // indirect
	golang.org/x/time v0.8.0 // indirect
)
